﻿{
    "_id": "course",
    "_type": "course",
    "title": "Marka Bilinirliği: Erişim ve Dikkat Elde Etme",
    "displayTitle": "Marka Bilinirliği: Erişim ve Dikkat Elde Etme",
    "body": "",
    "_buttons": {
        "_submit": {
            "buttonText": "Gönder",
            "ariaLabel": "Cevabınızı göndermek için buraya tıklayın."
        },
        "_reset": {
            "buttonText": "Sıfırla",
            "ariaLabel": "Soruyu sıfırlamak için buraya tıklayın."
        },
        "_showCorrectAnswer": {
            "buttonText": "Doğru cevap",
            "ariaLabel": "Doğru cevabı görmek için buraya tıklayın."
        },
        "_hideCorrectAnswer": {
            "buttonText": "Benim cevabım",
            "ariaLabel": "Verdiğiniz cevabı görmek için buraya tıklayın."
        },
        "_showFeedback": {
            "buttonText": "Geribildirimi göster",
            "ariaLabel": "Soru geribildirimini tekrar görmek için buraya tıklayın."
        },
        "remainingAttemptsText": "deneme kaldı",
        "remainingAttemptText": "son deneme",
        "disabledAriaLabel": "Bu düğme şu anda devre dışı."
    },
    "_globals": {
        "_components": {
            "_accordion": {
                "ariaRegion": "Bu bileşen, ekran metni içeren açılıp kapanabilir içerik panellerinden oluşan bir katlanır öğedir. Bu içerik panellerinin görünürlük durumunu değiştirmek için öğe başlıklarını seçin.",
                "instruction": ""
            },
            "_blank": {
                "ariaRegion": "",
                "instruction": ""
            },
            "_gmcq": {
                "ariaRegion": "Bu bileşen grafik şeklinde bir çoktan seçmeli sorudur. Bir seçim yaptıktan sonra aşağıdaki gönderme düğmesini seçin.",
                "instruction": ""
            },
            "_graphic": {
                "ariaRegion": "",
                "instruction": ""
            },
            "_hotGraphic": {
                "ariaRegion": "Aşağıdaki bileşen bir görsel üzerindeki noktaları seçmenize imkan tanır. Ekran metni içeren bir görselle bir açılır pencerenin görünmesi için bir nokta seçin. Açılır pencereyi kapatmak için kapat düğmesini seçin.",
                "instruction": ""
            },
            "_matching": {
                "ariaRegion": "Bu soru bileşeni, aşağıdaki bir açılır listeden uygun cevabı seçmenizi gerektirir. Cevaplarınızı seçtikten sonra gönderme düğmesini seçin.",
                "instruction": ""
            },
            "_mcq": {
                "ariaRegion": "Bu bileşen bir çoktan seçmeli sorudur. Bir seçim yaptıktan sonra aşağıdaki gönderme düğmesini seçin",
                "instruction": ""
            },
            "_media": {
                "ariaRegion": "Bu, bir video oynatan bir medya bileşenidir. İzlemek veya dinlemek için oynat/duraklat düğmesini seçin. Alternatif olarak metni görmek için aşağıdaki bağlantıyı seçebilirsiniz.",
                "instruction": ""
            },
            "_narrative": {
                "ariaRegion": "Bu bileşen, metinler de içeren bir görsel galerisini görüntüler. Metin üzerinde çalışmak için ileri ve geri gezinme denetimlerini kullanın.",
                "instruction": ""
            },
            "_slider": {
                "ariaRegion": "Bu bileşen, doğru değeri seçerek soruyu cevaplamanızı gerektirir. Bir değer seçtikten sonra aşağıdaki gönderme düğmesini seçin.",
                "instruction": ""
            },
            "_text": {
                "ariaRegion": "",
                "instruction": ""
            },
            "_textInput": {
                "ariaRegion": "Bu soru bileşeni, cevabı verilen metin kutusuna yazmanızı gerektirir. Soruyu cevapladıktan sonra aşağıdaki gönderme düğmesini seçin.",
                "instruction": ""
            }
        },
        "_extensions": {
            "_pageLevelProgress": {
                "pageLevelProgress": "Sayfa kısımları",
                "pageLevelProgressEnd": "Sayfa kısımları listesinin sonuna geldiniz.",
                "pageLevelProgressIndicatorBar": "İlerleme çubuğu. İlerleme durumunuzu görmek için burayı seçin ve bir içeriğe gitmek için içeriği seçin. Tamamladınız ",
                "optionalContent": "İsteğe Bağlı İçerik"
            }
        },
        "_menu": {
            "_boxmenu": {
                "ariaRegion": "Menü",
                "menuItem": "Menü öğesi.",
                "menuEnd": "Menünün sonuna geldiniz."
            }
        },
        "_accessibility": {
            "_accessibilityToggleTextOn": "Erişilebilirlik açılsın mı?",
            "_accessibilityToggleTextOff": "Erişilebilirlik kapatılsın mı?",
            "_accessibilityInstructions": {
                "touch": "Kullanım talimatları. Sonraki için sola kaydırın. Önceki için sağa kaydırın. Seçmek için çift dokunun. Sayfanın başına gitmek için iki parmağınızla yukarı kaydırın.",
                "notouch": "Kullanım talimatları. Sonraki için Tab tuşuna basın. Önceki için Shift tuşuna basın. Seçmek için Enter tuşuna basın. Sayfanın başına gitmek için Esc tuşuna basın.",
                "ipad": "Dokunmatik ekranlar için kullanım talimatları. Sonraki için sola kaydırın. Önceki için sağa kaydırın. Seçmek için çift dokunun. Sayfanın başına gitmek için iki parmağınızla yukarı kaydırın. Klavye erişimi için kullanım talimatları. Sonraki için sol ok tuşuna basın. Önceki için sağ ok tuşuna basın. Seçmek için yukarı ve aşağı ok tuşlarına aynı anda basın."
            },
            "_ariaLabels": {
                "navigation": "Kurs gezinme menüsü",
                "menuLoaded": "Menü Yüklendi.",
                "menu": "Menü",
                "page": "Sayfa",
                "pageLoaded": "Sayfa Yüklendi.",
                "pageEnd": "Sayfanın sonuna geldiniz.",
                "previous": "Geri",
                "navigationBack": "Geri gidin",
                "navigationDrawer": "Kurs kaynaklarını açın.",
                "close": "Kapat",
                "closeDrawer": "Çekmeceyi Kapat",
                "closeResources": "Kaynakları kapatın",
                "resourcesEnd": "Kaynak listesinin sonuna geldiniz.",
                "drawerBack": "Çekmeceye dönün",
                "drawer": "Çekmecenin üst kısmı",
                "closePopup": "Açılır pencereyi kapatın",
                "next": "İleri",
                "done": "Bitti",
                "complete": "Tamamlandı",
                "incomplete": "Tamamlanmadı",
                "incorrect": "Yanlış",
                "correct": "Doğru",
                "locked": "Kilitli",
                "accessibilityToggleButton": "Bu düğmeyi seçerek erişilebilirliği açık veya kapalı olarak ayarlayabilirsiniz",
                "feedbackPopUp": "Açılır pencere açıldı.",
                "menuBack": "Menüye dön",
                "visited": "Ziyaret edildi"
            }
        }
    },
    "_latestTrackingId": 23,
    "_pageLevelProgress": {
        "_isEnabled": true,
        "_altText": "sayfa bileşenini tamamladınız."
    },
    "_bookmarking": {
        "_isEnabled": true,
        "_level": "component",
        "title": "Yer işareti",
        "body": "Bıraktığınız yerden devam etmek ister misiniz?",
        "_buttons": {
            "yes": "Evet",
            "no": "Hayır"
        }
    },
    "_analytics": {
        "_isEnabled": true
    }
}